BIT_SLICE/simulation/qsim/BIT_SLICE.msim.vcd
$comment
	File created using the following command:
		vcd file BIT_SLICE.msim.vcd -direction
$end
$date
	Thu May 16 13:48:50 2024
$end
$version
	ModelSim Version 10.5b
$end
$timescale
	1ps
$end

$scope module bit_slice_vhd_vec_tst $end
$var wire 1 ! A $end
$var wire 1 " AmasB $end
$var wire 1 # AnB $end
$var wire 1 $ AoB $end
$var wire 1 % AxB $end
$var wire 1 & B $end
$var wire 1 ' C $end
$var wire 1 ( Cin $end
$var wire 1 ) NA $end
$var wire 1 * NB $end
$var wire 1 + notA $end
$var wire 1 , notB $end
$var wire 1 - S $end

$scope module i1 $end
$var wire 1 . gnd $end
$var wire 1 / vcc $end
$var wire 1 0 unknown $end
$var wire 1 1 devoe $end
$var wire 1 2 devclrn $end
$var wire 1 3 devpor $end
$var wire 1 4 ww_devoe $end
$var wire 1 5 ww_devclrn $end
$var wire 1 6 ww_devpor $end
$var wire 1 7 ww_A $end
$var wire 1 8 ww_B $end
$var wire 1 9 ww_NA $end
$var wire 1 : ww_NB $end
$var wire 1 ; ww_Cin $end
$var wire 1 < ww_AnB $end
$var wire 1 = ww_notB $end
$var wire 1 > ww_notA $end
$var wire 1 ? ww_AxB $end
$var wire 1 @ ww_AoB $end
$var wire 1 A ww_AmasB $end
$var wire 1 B ww_C $end
$var wire 1 C ww_S $end
$var wire 1 D \AmasB~combout\ $end
$var wire 1 E \B~combout\ $end
$var wire 1 F \NB~combout\ $end
$var wire 1 G \NA~combout\ $end
$var wire 1 H \Cin~combout\ $end
$var wire 1 I \OR1~0_combout\ $end
$var wire 1 J \A~combout\ $end
$var wire 1 K \XOR1~combout\ $end
$var wire 1 L \C~0_combout\ $end
$var wire 1 M \C~1_combout\ $end
$var wire 1 N \I0|S~combout\ $end
$var wire 1 O \A6~combout\ $end
$var wire 1 P \notB~combout\ $end
$var wire 1 Q \AoB~combout\ $end
$var wire 1 R \S~0_combout\ $end
$var wire 1 S \AnB~combout\ $end
$var wire 1 T \S~1_combout\ $end
$var wire 1 U \notA~combout\ $end
$var wire 1 V \S~2_combout\ $end
$var wire 1 W \AxB~combout\ $end
$var wire 1 X \S~3_combout\ $end
$upscope $end
$upscope $end
$enddefinitions $end
#0
$dumpvars
1!
1"
0#
0$
0%
1&
1'
0(
0)
0*
0+
0,
0-
0.
1/
x0
11
12
13
14
15
16
17
18
09
0:
0;
0<
0=
0>
0?
0@
1A
1B
0C
1D
1E
0F
0G
0H
0I
1J
1K
1L
1M
0N
0O
0P
0Q
0R
0S
0T
0U
0V
0W
0X
$end
#80000
0!
0"
1#
07
0A
1<
1S
0D
0J
0K
1N
0M
1T
0B
0L
0'
#160000
1!
0#
0&
1$
17
0<
08
1@
1Q
0E
0S
1J
1K
1V
1X
1C
1-
#240000
0!
0$
1%
07
0@
1?
1W
0Q
0J
0K
0N
0T
0V
0X
0C
0-
#320000
1!
0%
1&
1"
1)
17
0?
18
1A
19
1G
1D
1E
0W
1J
1I
1N
1L
#400000
0!
0"
0)
07
0A
09
0G
0D
0J
0I
0L
#480000
1!
0&
17
08
0E
1J
1K
#560000
0!
07
0J
0K
0N
#640000
1!
1&
17
18
1E
1J
1K
1L
#720000
0!
07
0J
0K
1N
0L
#800000
1!
0&
17
08
0E
1J
1K
#880000
0!
07
0J
0K
0N
#960000
1!
1&
17
18
1E
1J
1K
1L
